%YAML 1.1
%TAG !u! tag:unity3d.com,2011:
--- !u!114 &11400000
MonoBehaviour:
  m_ObjectHideFlags: 0
  m_PrefabParentObject: {fileID: 0}
  m_PrefabInternal: {fileID: 0}
  m_GameObject: {fileID: 0}
  m_Enabled: 1
  m_EditorHideFlags: 0
  m_Script: {fileID: 11500000, guid: 897bb996be50945de8ce8b34ea6301e5, type: 3}
  m_Name: Blender
  m_EditorClassIdentifier: 
  name: Blender
  logo: {fileID: 10911, guid: 0000000000000000f000000000000000, type: 0}
  price: 0
