%YAML 1.1
%TAG !u! tag:unity3d.com,2011:
--- !u!114 &11400000
MonoBehaviour:
  m_ObjectHideFlags: 0
  m_PrefabParentObject: {fileID: 0}
  m_PrefabInternal: {fileID: 0}
  m_GameObject: {fileID: 0}
  m_Enabled: 1
  m_EditorHideFlags: 0
  m_Script: {fileID: 11500000, guid: 1b5aa9ff12f2a4819872437369703b90, type: 3}
  m_Name: 04
  m_EditorClassIdentifier: 
  codeSnippet: void main() {     int num1=20, num2=100;     num1 + num2 = ____; }
  availableOptions:
  - 200
  - 120
  - 80
  correct: 1
